<?xml version="1.0" encoding="utf-8"?>
<!-- Generator: Adobe Illustrator 24.1.2, SVG Export Plug-In . SVG Version: 6.00 Build 0)  -->
<svg version="1.1" xmlns="http://www.w3.org/2000/svg" xmlns:xlink="http://www.w3.org/1999/xlink" x="0px" y="0px"
	 viewBox="0 0 500 500" style="enable-background:new 0 0 500 500;" xml:space="preserve">
<style type="text/css">
	.st0{fill:#F0F0F0;}
	.st1{fill:#F5F5F5;}
	.st2{fill:#E6E6E6;}
	.st3{fill:#FFFFFF;}
	.st4{fill:#E0E0E0;}
	.st5{fill:#EBEBEB;}
	.st6{fill:#FAFAFA;}
	.st7{display:none;}
	.st8{display:inline;}
	.st9{fill:#407BFF;}
	.st10{opacity:0.9;fill:#FFFFFF;}
	.st11{opacity:0.3;fill:#FFFFFF;}
	.st12{fill:#263238;}
	.st13{opacity:0.4;fill:#407BFF;}
	.st14{opacity:0.1;fill:#407BFF;}
	.st15{opacity:0.4;fill:#FFFFFF;}
	.st16{opacity:0.3;}
	.st17{opacity:0.6;fill:#407BFF;}
	.st18{fill:#FF5652;}
	.st19{fill:#FF8B7B;}
	.st20{opacity:0.2;}
	.st21{opacity:0.5;fill:#FFFFFF;}
	.st22{opacity:0.7;fill:#FFFFFF;}
</style>
<g id="Background_Complete">
	<g>
		<g>
			<g>
				
					<rect x="381.06" y="248.05" transform="matrix(-1 -1.224647e-16 1.224647e-16 -1 807.7711 621.5772)" class="st0" width="45.65" height="125.47"/>
				
					<rect x="181.74" y="373.53" transform="matrix(-1 -1.224647e-16 1.224647e-16 -1 599.6848 755.9232)" class="st0" width="236.21" height="8.87"/>
				<rect x="172.97" y="248.05" class="st1" width="208.09" height="125.47"/>
				<rect x="172.97" y="256.55" class="st0" width="208.89" height="45.93"/>
				<rect x="172.97" y="310.85" class="st0" width="208.89" height="45.93"/>
				
					<rect x="381.06" y="256.55" transform="matrix(-1 -1.224647e-16 1.224647e-16 -1 770.0168 559.0173)" class="st2" width="7.9" height="45.93"/>
				
					<rect x="381.06" y="310.85" transform="matrix(-1 -1.224647e-16 1.224647e-16 -1 770.0168 667.6205)" class="st2" width="7.9" height="45.93"/>
			</g>
			
				<rect x="166.89" y="240.33" transform="matrix(-1 -1.224647e-16 1.224647e-16 -1 547.9498 488.3842)" class="st0" width="214.17" height="7.72"/>
			<rect x="381.06" y="240.33" class="st2" width="52.03" height="7.72"/>
		</g>
		<g>
			
				<rect x="328.14" y="81.68" transform="matrix(-1 -1.224647e-16 1.224647e-16 -1 763.7179 298.4117)" class="st0" width="107.43" height="135.04"/>
			
				<rect x="304.43" y="81.68" transform="matrix(-1 -1.224647e-16 1.224647e-16 -1 735.8855 298.4117)" class="st1" width="127.03" height="135.04"/>
			
				<rect x="311.06" y="96.33" transform="matrix(6.123234e-17 -1 1 6.123234e-17 218.737 517.1486)" class="st3" width="113.76" height="105.75"/>
			<g>
				<path class="st2" d="M379.65,161.52l20.21-9.37v-5.9l-20.21-9.39v7.05l12.28,5.29l-12.28,5.29V161.52z"/>
				<path class="st2" d="M366.47,134.15h-3.69l6.54,30.11h3.66L366.47,134.15z"/>
				<path class="st2" d="M356.23,154.51l-12.28-5.29l12.28-5.29v-7.05l-20.21,9.39v5.9l20.21,9.37V154.51z"/>
			</g>
		</g>
		<g>
			
				<rect x="117.21" y="153.22" transform="matrix(-1 -1.224647e-16 1.224647e-16 -1 241.4702 535.6206)" class="st0" width="7.04" height="229.18"/>
			<path class="st0" d="M115.75,380.8l-0.19-0.98c0.08-0.02,1.92-0.42,3.33-2.91c1.83-3.24,2.94-10.15-2.15-24.63
				c-7.84-22.31-3.16-40.32,6.17-76.2c1.62-6.25,3.47-13.33,5.38-20.98c7.17-28.67,0.54-46.45-4.79-60.74
				c-4.14-11.09-7.4-19.85-3.22-30l0.92,0.38c-4.03,9.79-0.83,18.38,3.23,29.27c5.37,14.42,12.06,32.36,4.82,61.33
				c-1.91,7.65-3.75,14.74-5.38,20.99c-9.28,35.68-13.93,53.59-6.19,75.61c5.24,14.89,4,22.09,2.04,25.51
				C118.09,380.32,115.85,380.78,115.75,380.8z"/>
			<polygon class="st0" points="107.99,382.4 133.48,382.4 126.39,378.22 115.08,378.22 			"/>
			<polygon class="st1" points="70.32,182.41 171.15,182.41 160.06,97.67 81.41,97.67 			"/>
		</g>
		<g>
			<polygon class="st0" points="219.88,196.38 273.72,196.38 266.63,240.33 226.97,240.33 			"/>
			<g>
				<path class="st4" d="M241.51,210.68c14.68-5.31,25.93-13.29,13.35-29.43c-12.58-16.14-32.07-16.07-45.21-8.93
					c-16.74,9.11-13.39,35.45-13.39,35.45S226.83,215.99,241.51,210.68z"/>
				<path class="st2" d="M255.78,195.97c-11.23-7.64-19.2-16.5-6.16-25.84c13.03-9.34,29.1-4.55,38.76,4.12
					c12.31,11.06,5.21,30.47,5.21,30.47S267.02,203.61,255.78,195.97z"/>
				<path class="st0" d="M236.01,176.59c13.14-0.8,24.16-4.22,17.94-18.46c-6.22-14.23-21.97-18.21-34.31-15.78
					c-15.73,3.11-19.44,22.79-19.44,22.79S222.87,177.39,236.01,176.59z"/>
				<path class="st5" d="M252.5,168.2c-10.93-3.51-19.5-8.79-11.17-19.47c8.33-10.68,22.5-10.64,32.4-5.91
					c12.62,6.02,11.5,23.45,11.5,23.45S263.43,171.71,252.5,168.2z"/>
				<path class="st1" d="M232.01,149.96c10.9,3.6,20.94,4.38,20.49-9.16c-0.45-13.54-11.92-21.85-22.71-23.86
					c-13.75-2.56-23.1,12.19-23.1,12.19S221.11,146.37,232.01,149.96z"/>
				<path class="st6" d="M259.69,144.15c-7.81,0.53-14.56-0.65-11.98-9.51c2.58-8.86,11.56-12.41,19.02-11.91
					c9.51,0.63,13.19,11.95,13.19,11.95S267.49,143.62,259.69,144.15z"/>
			</g>
		</g>
	</g>
</g>
<g id="Background_Simple" class="st7">
	<g class="st8">
		<path class="st9" d="M282.9,296.64c-42.28,0.6-104.78,32.91-130.8-7.74c-21.82-34.09,3.38-67.46-36.97-92.65
			c-29.4-18.35-77.13-50.53-32.81-83.87C117,86.3,171.17,79.06,213.16,85.04c32.97,4.7,101.54,24.26,109.83,58.86
			c9.32,38.89-51.1,71,13.49,85.64c38.87,8.81,85.75,31.37,58.29,77.89c-10.84,18.36-26.28,15.16-42.65,7.93
			C327.95,304.69,311.99,296.23,282.9,296.64z"/>
		<path class="st10" d="M282.9,296.64c-42.28,0.6-104.78,32.91-130.8-7.74c-21.82-34.09,3.38-67.46-36.97-92.65
			c-29.4-18.35-77.13-50.53-32.81-83.87C117,86.3,171.17,79.06,213.16,85.04c32.97,4.7,101.54,24.26,109.83,58.86
			c9.32,38.89-51.1,71,13.49,85.64c38.87,8.81,85.75,31.37,58.29,77.89c-10.84,18.36-26.28,15.16-42.65,7.93
			C327.95,304.69,311.99,296.23,282.9,296.64z"/>
	</g>
</g>
<g id="Shadow_1_">
	<ellipse id="_x3C_Path_x3E__327_" class="st1" cx="250" cy="416.24" rx="193.89" ry="11.32"/>
</g>
<g id="Desk">
	<g>
		<g>
			<rect x="79.51" y="251.09" class="st9" width="339.75" height="12.19"/>
			<rect x="79.51" y="251.09" class="st11" width="90.93" height="12.19"/>
			<polygon class="st9" points="171.89,263.28 163.98,263.28 168.12,416.06 171.89,416.06 175.66,416.06 179.81,263.28 			"/>
			<polygon class="st11" points="168.12,416.06 171.89,416.06 171.89,266.56 164.11,267.98 			"/>
			<polygon class="st9" points="96.92,263.28 89.01,263.28 93.15,416.06 96.92,416.06 100.69,416.06 104.83,263.28 			"/>
			<polygon class="st11" points="93.15,416.06 96.92,416.06 96.92,266.56 89.13,267.98 			"/>
			<polygon class="st9" points="401.85,263.28 393.94,263.28 398.09,416.06 401.85,416.06 405.62,416.06 409.77,263.28 			"/>
			<polygon class="st11" points="398.09,416.06 401.85,416.06 401.85,266.56 394.07,267.98 			"/>
			<polygon class="st9" points="326.88,263.28 318.97,263.28 323.11,416.06 326.88,416.06 330.65,416.06 334.79,263.28 			"/>
			<polygon class="st11" points="323.11,416.06 326.88,416.06 326.88,266.56 319.09,267.98 			"/>
		</g>
		<g>
			<path class="st12" d="M240.78,185.83h-80.84c-2.9,0-4.78,2.37-4.17,5.28l10.77,51.35c0.61,2.9,3.48,5.28,6.38,5.28h80.84
				c2.9,0,4.78-2.37,4.17-5.28l-10.77-51.35C246.55,188.2,243.68,185.83,240.78,185.83z"/>
			<path class="st3" d="M173.67,244.8c-1.9,0-3.91-1.68-4.32-3.6l-10.77-51.35c-0.17-0.79-0.03-1.5,0.37-2
				c0.38-0.47,1-0.73,1.73-0.73h80.84c1.9,0,3.91,1.68,4.32,3.6l10.77,51.35c0.16,0.79,0.03,1.5-0.37,2
				c-0.39,0.48-0.99,0.73-1.73,0.73H173.67z"/>
			<path class="st13" d="M234.66,240.69l-10.2-48.65c-0.26-1.23,0.68-2.39,1.94-2.39h13.12c0.94,0,1.75,0.66,1.94,1.57l10.2,48.65
				c0.26,1.23-0.68,2.39-1.94,2.39H236.6C235.66,242.27,234.85,241.61,234.66,240.69z"/>
			<g>
				<polygon class="st9" points="165.32,193.87 164.88,191.76 181.08,191.76 181.52,193.87 				"/>
				<polygon class="st5" points="172.8,199.11 172.36,197 200.75,197 201.2,199.11 				"/>
				<polygon class="st5" points="174.3,204.34 173.85,202.23 205.68,202.23 206.12,204.34 				"/>
				<polygon class="st5" points="175.79,209.58 175.35,207.47 200.97,207.47 201.42,209.58 				"/>
			</g>
			<g>
				<polygon class="st9" points="170.25,218.07 169.8,215.96 180.05,215.96 180.49,218.07 				"/>
				<polygon class="st5" points="177.72,223.3 177.28,221.19 189.77,221.19 190.21,223.3 				"/>
				<polygon class="st5" points="193.2,223.3 192.76,221.19 205.24,221.19 205.68,223.3 				"/>
				<polygon class="st5" points="179.22,228.54 178.78,226.43 220.98,226.43 221.42,228.54 				"/>
				<polygon class="st5" points="180.71,233.77 180.27,231.66 212.45,231.66 212.89,233.77 				"/>
			</g>
			<path class="st12" d="M278.52,247.42H172.16c-2.9,0-4.78,1.65-4.17,3.66H284.9C284.3,249.07,281.42,247.42,278.52,247.42z"/>
		</g>
		<g>
			<path class="st14" d="M137.21,172.85l-10.2-48.65c-0.26-1.23,0.68-2.39,1.94-2.39h82.6c0.94,0,1.75,0.66,1.94,1.57l10.2,48.65
				c0.26,1.23-0.68,2.39-1.94,2.39h-82.6C138.21,174.42,137.4,173.76,137.21,172.85z"/>
			<g>
				<g>
					<g>
						<polygon class="st9" points="166.57,123.41 149.23,123.41 148.84,121.54 166.18,121.54 						"/>
						<polygon class="st13" points="163.75,126.39 156.79,126.39 156.4,124.52 163.36,124.52 						"/>
						<polygon class="st13" points="175.33,126.39 164.61,126.39 164.22,124.52 174.94,124.52 						"/>
						<polygon class="st13" points="180,129.36 157.41,129.36 157.02,127.49 179.62,127.49 						"/>
						<polygon class="st13" points="177.13,132.33 158.03,132.33 157.64,130.47 176.74,130.47 						"/>
					</g>
					<polygon class="st13" points="189.8,163.95 177.64,163.95 178.03,165.81 190.19,165.81 					"/>
					<g>
						<polygon class="st9" points="174.64,159.86 156.83,159.86 156.44,158 174.25,158 						"/>
						<polygon class="st13" points="181.8,166.92 165.24,166.92 165.63,168.79 182.19,168.79 						"/>
						<polygon class="st13" points="176.78,163.95 164.62,163.95 165.01,165.81 177.17,165.81 						"/>
						<polygon class="st13" points="188.32,160.97 164,160.97 164.39,162.84 188.71,162.84 						"/>
					</g>
					<g>
						<polygon class="st9" points="165.96,109.53 146.34,109.53 145.95,107.67 165.57,107.67 						"/>
						<polygon class="st13" points="175.65,116.59 154.01,116.59 154.4,118.46 176.04,118.46 						"/>
						<polygon class="st13" points="171.32,113.62 153.39,113.62 153.78,115.48 171.71,115.48 						"/>
						<polygon class="st13" points="172.51,110.64 152.77,110.64 153.16,112.51 172.9,112.51 						"/>
					</g>
					<g>
						<polygon class="st9" points="165.74,137.18 152.1,137.18 151.71,135.31 165.35,135.31 						"/>
						<polygon class="st13" points="187.16,144.23 160.51,144.23 160.9,146.1 187.55,146.1 						"/>
						<polygon class="st13" points="170.93,141.26 159.89,141.26 160.28,143.12 171.32,143.12 						"/>
						<polygon class="st13" points="182.91,141.26 171.87,141.26 172.26,143.12 183.3,143.12 						"/>
						<polygon class="st13" points="183.59,138.28 159.27,138.28 159.66,140.15 183.97,140.15 						"/>
						<polygon class="st13" points="183.54,153.16 162.37,153.16 162.76,155.02 183.93,155.02 						"/>
						<polygon class="st13" points="167.91,150.18 161.75,150.18 162.14,152.05 168.3,152.05 						"/>
						<polygon class="st13" points="177.54,150.18 168.75,150.18 169.14,152.05 177.93,152.05 						"/>
						<polygon class="st13" points="185.45,147.21 161.13,147.21 161.52,149.07 185.84,149.07 						"/>
					</g>
				</g>
				<g>
					<g>
						<polygon class="st13" points="204.6,146.71 195.89,146.71 195.5,144.84 204.22,144.84 						"/>
						<polygon class="st13" points="219.1,146.71 205.68,146.71 205.29,144.84 218.71,144.84 						"/>
						<polygon class="st13" points="224.8,149.69 196.51,149.69 196.12,147.82 224.41,147.82 						"/>
						<polygon class="st13" points="221.04,152.66 197.13,152.66 196.74,150.79 220.65,150.79 						"/>
					</g>
					<g>
						<polygon class="st13" points="231.75,134.87 204.66,134.87 205.05,136.74 232.14,136.74 						"/>
						<polygon class="st13" points="226.49,131.9 204.04,131.9 204.43,133.77 226.87,133.77 						"/>
						<polygon class="st9" points="222.43,128.93 197.71,128.93 198.1,130.79 222.82,130.79 						"/>
					</g>
					<g>
						<polygon class="st13" points="232.97,164.56 199.61,164.56 200,166.43 233.36,166.43 						"/>
						<polygon class="st13" points="212.81,161.58 198.99,161.58 199.38,163.45 213.2,163.45 						"/>
						<polygon class="st13" points="227.81,161.58 213.99,161.58 214.38,163.45 228.2,163.45 						"/>
						<polygon class="st13" points="228.81,158.61 198.37,158.61 198.76,160.48 229.2,160.48 						"/>
						<polygon class="st13" points="227.97,173.48 201.47,173.48 201.86,175.35 228.36,175.35 						"/>
						<polygon class="st13" points="208.56,170.51 200.85,170.51 201.24,172.37 208.95,172.37 						"/>
						<polygon class="st13" points="220.62,170.51 209.62,170.51 210.01,172.37 221.01,172.37 						"/>
						<polygon class="st13" points="230.67,167.53 200.23,167.53 200.62,169.4 231.06,169.4 						"/>
					</g>
				</g>
				<g>
					<polygon class="st13" points="149.6,175.79 128.86,175.79 129.25,177.66 149.99,177.66 					"/>
					<polygon class="st13" points="143.46,172.82 128.24,172.82 128.63,174.68 143.85,174.68 					"/>
					<polygon class="st13" points="159.77,172.82 144.54,172.82 144.93,174.68 160.15,174.68 					"/>
					<polygon class="st13" points="158.07,169.84 127.62,169.84 128.01,171.71 158.45,171.71 					"/>
				</g>
			</g>
		</g>
		<g>
			<polygon class="st9" points="390.95,231.66 378.11,231.66 379.61,251.09 389.46,251.09 			"/>
			<polygon class="st15" points="390.95,231.66 378.11,231.66 379.61,251.09 389.46,251.09 			"/>
		</g>
		<g>
			<polygon class="st12" points="111.13,218.17 129.59,218.17 123.29,251.09 104.83,251.09 			"/>
			<polygon class="st9" points="134.64,209.35 108.57,209.35 115.87,251.09 141.94,251.09 			"/>
			<g>
				<polygon class="st9" points="107.03,209.35 108.57,209.35 115.87,251.09 114.33,251.09 				"/>
				<polygon class="st16" points="107.03,209.35 108.57,209.35 115.87,251.09 114.33,251.09 				"/>
			</g>
			<polygon class="st3" points="119.62,246.62 113.88,213.81 130.9,213.81 136.63,246.62 			"/>
			<polygon class="st17" points="135.82,246.62 130.09,213.81 130.9,213.81 136.63,246.62 			"/>
		</g>
	</g>
</g>
<g id="Character_1_">
	<g>
		<g>
			<path class="st12" d="M263.77,155.96c0.37,0.8,0.25,1.65-0.28,1.89c-0.52,0.24-1.25-0.21-1.62-1.01
				c-0.37-0.8-0.25-1.65,0.28-1.89C262.67,154.71,263.4,155.16,263.77,155.96z"/>
			<path class="st18" d="M264.09,157.58c0,0,0.32,5.47-0.66,8.63c2.03,0.67,4.16-1.05,4.16-1.05L264.09,157.58z"/>
			<path class="st12" d="M263.87,149.39c-0.08,0.07-0.18,0.11-0.3,0.11c-2.28,0.13-3.25,1.72-3.29,1.79
				c-0.15,0.25-0.46,0.33-0.71,0.19c-0.25-0.14-0.33-0.46-0.19-0.71c0.05-0.09,1.27-2.15,4.13-2.31c0.29-0.02,0.53,0.2,0.55,0.49
				C264.07,149.13,263.99,149.29,263.87,149.39z"/>
			<path class="st19" d="M293.22,154.76c3.09,10.7,6.54,19.02,10.75,23.74c0,0,0.08,8.41-14.26,12.41
				c-15.76,4.4-9.72-5.72-9.72-5.72c8.03-4.46,7.24-11.18,1.22-13.73L293.22,154.76z"/>
			<path class="st12" d="M307.31,176.45c-0.29-3.92-0.65-8.38-3.07-8.49c-2.66-0.12-18.05,6.75-21.35,11.61
				c-3.29,4.85,3.13,9.6,3.13,9.6L307.31,176.45z"/>
			<g>
				<path class="st19" d="M275.79,237.01l-13.3-0.44l0.24,11.14c0,0,11.6-1.2,12.12-4.24L275.79,237.01z"/>
				<polygon class="st19" points="255.46,242.03 254.06,247.73 262.73,247.71 262.49,236.57 				"/>
				<g>
					<path class="st9" d="M329.17,190.71l-0.28,2.86c-0.09,0.92-0.22,1.82-0.33,2.73c-0.23,1.81-0.52,3.62-0.83,5.42
						c-0.6,3.61-1.38,7.2-2.27,10.81c-0.94,3.6-1.97,7.23-3.32,10.87c-0.69,1.83-1.41,3.66-2.27,5.52c-0.86,1.86-1.79,3.73-3,5.65
						c-0.28,0.47-0.61,0.96-0.94,1.44c-0.32,0.48-0.66,0.96-1.04,1.46c-0.38,0.49-0.72,0.97-1.18,1.47l-0.65,0.74
						c-0.21,0.24-0.43,0.48-0.74,0.78c-2.32,2.28-4.7,3.66-6.93,4.66c-4.46,1.96-8.51,2.71-12.43,3.15
						c-1.95,0.23-3.88,0.32-5.78,0.36c-1.9,0.05-3.77,0.01-5.63-0.09c-1.86-0.08-3.7-0.27-5.53-0.48c-1.86-0.23-3.61-0.51-5.55-0.9
						l0.32-10.45c6.42-1.28,13.14-2.59,18.9-4.51c1.44-0.46,2.82-1,4.06-1.56c1.25-0.54,2.38-1.14,3.22-1.74
						c0.84-0.6,1.39-1.18,1.45-1.42l0.3-0.46c0.12-0.15,0.24-0.41,0.37-0.62c0.13-0.2,0.26-0.45,0.39-0.71
						c0.13-0.25,0.27-0.49,0.39-0.79c1.05-2.22,2.07-5.01,2.89-7.93c0.82-2.94,1.6-6.02,2.21-9.18c0.68-3.14,1.22-6.37,1.77-9.6
						l0.76-4.86l0.68-4.73L329.17,190.71z"/>
					<path class="st20" d="M329.17,190.71l-0.28,2.86c-0.09,0.92-0.22,1.82-0.33,2.73c-0.23,1.81-0.52,3.62-0.83,5.42
						c-0.6,3.61-1.38,7.2-2.27,10.81c-0.94,3.6-1.97,7.23-3.32,10.87c-0.69,1.83-1.41,3.66-2.27,5.52c-0.86,1.86-1.79,3.73-3,5.65
						c-0.28,0.47-0.61,0.96-0.94,1.44c-0.32,0.48-0.66,0.96-1.04,1.46c-0.38,0.49-0.72,0.97-1.18,1.47l-0.65,0.74
						c-0.21,0.24-0.43,0.48-0.74,0.78c-2.32,2.28-4.7,3.66-6.93,4.66c-4.46,1.96-8.51,2.71-12.43,3.15
						c-1.95,0.23-3.88,0.32-5.78,0.36c-1.9,0.05-3.77,0.01-5.63-0.09c-1.86-0.08-3.7-0.27-5.53-0.48c-1.86-0.23-3.61-0.51-5.55-0.9
						l0.32-10.45c6.42-1.28,13.14-2.59,18.9-4.51c1.44-0.46,2.82-1,4.06-1.56c1.25-0.54,2.38-1.14,3.22-1.74
						c0.84-0.6,1.39-1.18,1.45-1.42l0.3-0.46c0.12-0.15,0.24-0.41,0.37-0.62c0.13-0.2,0.26-0.45,0.39-0.71
						c0.13-0.25,0.27-0.49,0.39-0.79c1.05-2.22,2.07-5.01,2.89-7.93c0.82-2.94,1.6-6.02,2.21-9.18c0.68-3.14,1.22-6.37,1.77-9.6
						l0.76-4.86l0.68-4.73L329.17,190.71z"/>
				</g>
			</g>
			<g>
				<path class="st9" d="M270.12,203.96c3.22,13.38,7.38,35.82,8.33,65.15h58.55c0.32-7.24-0.9-47.96-6.79-77.46
					c-2.24-11.21-13.24-18.47-24.4-15.96c-0.09,0.02-0.19,0.04-0.28,0.06c-7.3,1.66-17.8,4.35-23.97,6.69
					c-0.08,0.03-0.17,0.06-0.25,0.1C272.73,185.83,267.97,195.02,270.12,203.96z"/>
			</g>
			<path class="st20" d="M273.93,222.7c0.46,2.81,0.93,5.78,1.36,8.91c4.79-5,6.31-20.32,6.31-20.32L273.93,222.7z"/>
			<g>
				<path class="st19" d="M225.29,237.73l-13.25-1.24l-0.44,11.13c0,0,6.82,2.24,12.35-3.5L225.29,237.73z"/>
				<polygon class="st19" points="205.68,239.77 201.42,247.42 211.6,247.62 212.04,236.49 				"/>
				<path class="st9" d="M292.09,198.87c-0.92,1.76-1.74,3.3-2.66,4.9c-0.9,1.58-1.81,3.16-2.75,4.71
					c-1.88,3.11-3.83,6.18-5.89,9.21c-4.11,6.06-8.53,11.97-13.71,17.64c-2.58,2.85-5.4,5.61-8.69,8.26
					c-0.39,0.33-0.85,0.66-1.28,0.99c-0.44,0.33-0.81,0.63-1.46,1.03c-0.58,0.39-1.17,0.74-1.76,1.05
					c-0.59,0.33-1.17,0.61-1.77,0.87c-2.37,1.04-4.67,1.67-6.88,2.09c-4.44,0.78-8.57,0.72-12.52,0.28c-1.97-0.26-3.9-0.57-5.8-1.03
					c-0.95-0.22-1.89-0.47-2.82-0.75c-0.96-0.27-1.81-0.59-2.88-0.96l1.66-10.32c6.28-0.85,13.07-1.94,17.75-4.06
					c1.17-0.5,2.17-1.08,2.91-1.68c0.37-0.29,0.71-0.56,0.94-0.83c0.08-0.09,0.38-0.36,0.62-0.58c0.25-0.23,0.49-0.43,0.75-0.69
					c2.01-1.95,4.03-4.27,6.01-6.75c3.94-4.98,7.67-10.51,11.27-16.16c1.8-2.83,3.56-5.71,5.3-8.6l2.58-4.35l2.49-4.26
					L292.09,198.87z"/>
			</g>
			<polygon class="st19" points="276.02,407.6 265.08,407.6 259.57,382.25 270.52,382.25 			"/>
			<path class="st12" d="M264.47,405.26h12.3c0.45,0,0.83,0.31,0.93,0.75l2.16,9.73c0.22,1.01-0.57,1.96-1.6,1.95
				c-4.29-0.07-6.38-0.33-11.79-0.33c-3.33,0-7.6,0.35-12.19,0.35c-4.49,0-5.2-4.54-3.31-4.96c8.43-1.85,9.03-4.39,11.73-6.82
				C263.18,405.49,263.81,405.26,264.47,405.26z"/>
			<g class="st20">
				<polygon points="270.53,382.26 259.57,382.26 262.63,396.3 273.37,395.33 				"/>
			</g>
			<path class="st19" d="M289.71,141.9c3.95,10.12,6.77,15.85,4.14,23.2c-3.96,11.06-18.2,12.17-25.09,3.43
				c-6.2-7.87-11.62-23.1-3.8-31.47C272.67,128.81,285.77,131.78,289.71,141.9z"/>
			<path class="st12" d="M270.49,157.06c-1.64,2.2-2.9,3.87-2.9,3.87s-3.37-8.37-2.08-12.21c-1.64-3.25-4.95,1.54-6.2-4.79
				c-1.25-6.33,4.15-13.13,6.2-14.54c0.29,0.47,0.27,2.27,0.27,2.27s8.09-7.21,19.61-6.2c-0.79,0.79-1.1,2.95-1.1,2.95
				s11.87,2.04,14.57,8.72c-1.7-0.82-2.99-1.06-2.99-1.06s3.4,4.22,2.4,10.73c-1,6.51-1.47,13.69-1.35,16.53
				c0.12,2.84-7.68,8.27-12.43,2.46C279.75,159.99,270.49,157.06,270.49,157.06z"/>
			<path class="st19" d="M275.44,154.88c0.69,2.48,0.34,5.15-0.51,7.1c-1.27,2.94-3.88,2.27-5.17-0.34
				c-1.17-2.35-1.91-6.72,0.16-8.81C271.96,150.78,274.66,152.05,275.44,154.88z"/>
			<g>
				<path class="st9" d="M296,269.1c0,0-50.84,18.43-52.34,42.83c-2.76,44.93,15.62,80.5,15.62,80.5l16.84-1.8
					c0,0-2.99-14.46-5.23-55.16c-2.81-51.15,83.99,1.2,66.12-66.36L296,269.1z"/>
				<path class="st21" d="M296,269.1c0,0-50.84,18.43-52.34,42.83c-2.76,44.93,15.62,80.5,15.62,80.5l16.84-1.8
					c0,0-2.99-14.46-5.23-55.16c-2.81-51.15,83.99,1.2,66.12-66.36L296,269.1z"/>
			</g>
			<path class="st9" d="M254.62,386.23c-0.08,0.01,2.68,7.47,2.68,7.47l21.03-2.06l-1.05-6.8L254.62,386.23z"/>
			<g>
				<polygon class="st19" points="228.73,408.84 217.78,408.84 214.58,383.49 225.53,383.49 				"/>
				<path class="st12" d="M217.7,405.25l11.96-0.02c0.45,0,0.84,0.31,0.93,0.75l2.18,9.73c0.23,1.01-0.54,1.97-1.57,1.95
					c-4.31-0.07-10.54-0.31-15.97-0.3c-6.34,0.01-7.55,0.36-14.99,0.37c-4.49,0.01-5.75-4.54-3.87-4.95
					c8.56-1.89,11.3-2.09,18.69-6.66C215.86,405.61,216.75,405.25,217.7,405.25z"/>
				<polygon class="st20" points="214.59,383.5 216.33,397.31 227.19,396.57 225.54,383.5 				"/>
			</g>
			<g>
				<path class="st9" d="M278.45,269.1c0,0-83.31,7.39-82.41,49.23c0.94,43.52,17.19,72.87,17.19,72.87h16.27
					c0,0-3.08-22.57-2.54-65.42c0.16-12.84,26.1-17.08,51.43-18.57c21.88-1.29,42.36-13.76,50.86-33.97l1.74-4.14H278.45z"/>
				<path class="st21" d="M278.45,269.1c0,0-83.31,7.39-82.41,49.23c0.94,43.52,17.19,72.87,17.19,72.87h16.27
					c0,0-3.08-22.57-2.54-65.42c0.16-12.84,26.1-17.08,51.43-18.57c21.88-1.29,42.36-13.76,50.86-33.97l1.74-4.14H278.45z"/>
			</g>
			<path class="st9" d="M209.43,386.83c-0.07,0.01,2.79,7.52,2.79,7.52l19.63-1.4l-1.14-6.81L209.43,386.83z"/>
		</g>
		<g>
			<g>
				<path class="st12" d="M300.32,222.08l-10.57,40.73c-2.7,10.39-4.06,21.14-4.06,31.94v18.93c0,4.78,3.52,8.66,7.87,8.66h54.19
					c4.35,0,7.87-3.88,7.87-8.66v-18.93c0-10.8,1.37-21.55,4.06-31.94l9.33-35.98c1.43-5.53-2.34-11.03-7.57-11.03h-53.56
					C304.37,215.8,301.28,218.36,300.32,222.08z"/>
				<path class="st12" d="M232.93,302.63l1.77,10.1c0.93,5.31,5.61,9.62,10.44,9.62h60.23c4.83,0,7.99-4.31,7.06-9.62l-1.77-10.1
					c-1.06-6.05-6.38-10.95-11.88-10.95h-57.82C235.46,291.68,231.87,296.58,232.93,302.63z"/>
			</g>
			<g>
				<polygon class="st9" points="311.17,332.49 279.62,332.49 276.54,322.35 314.25,322.35 				"/>
				<g>
					<rect x="289.76" y="332.49" class="st9" width="11.27" height="75.41"/>
					<polygon class="st22" points="301.03,407.9 289.76,407.9 289.76,334.3 301.03,335.45 					"/>
					<polygon class="st22" points="298.28,407.9 295.59,407.9 295.59,334.89 298.28,335.17 					"/>
				</g>
				<path class="st9" d="M321.31,419.56h-51.84c-1.39,0-1.97-1.77-0.85-2.59l8.23-6.03c3.95-2.9,8.72-4.46,13.62-4.46h9.85
					c4.9,0,9.67,1.56,13.62,4.46l8.23,6.03C323.28,417.78,322.7,419.56,321.31,419.56z"/>
			</g>
		</g>
	</g>
</g>
</svg>
