<?xml version="1.0" encoding="utf-8"?>
<!-- Generator: Adobe Illustrator 24.1.3, SVG Export Plug-In . SVG Version: 6.00 Build 0)  -->
<svg version="1.1" id="Calque_1" xmlns="http://www.w3.org/2000/svg" xmlns:xlink="http://www.w3.org/1999/xlink" x="0px" y="0px"
	 viewBox="0 0 412.27 393.43" style="enable-background:new 0 0 412.27 393.43;" xml:space="preserve">
<style type="text/css">
	.st0{fill:none;}
	.st1{fill:#FFFFFF;}
</style>
<g>
	<path class="st1" d="M93.97,204.99V242h-7.23v-51.1h10.07l8.25,30.59v-30.59h7.15V242h-8.25L93.97,204.99z"/>
	<path class="st1" d="M126.02,212.44h11.02v7.3h-11.02v14.96h13.87v7.3h-21.9v-51.1h21.9v7.3h-13.87V212.44z"/>
	<path class="st1" d="M168.87,202.66v1.82c0,5.26-1.61,8.61-5.18,10.29c4.31,1.68,5.99,5.55,5.99,10.95v4.16
		c0,7.88-4.16,12.12-12.19,12.12h-12.63v-51.1h12.12C165.29,190.91,168.87,194.78,168.87,202.66z M152.88,198.21v13.5h3.14
		c2.99,0,4.82-1.31,4.82-5.4v-2.85c0-3.65-1.24-5.26-4.09-5.26H152.88z M152.88,219.01v15.69h4.6c2.7,0,4.16-1.24,4.16-5.04v-4.45
		c0-4.75-1.53-6.21-5.18-6.21H152.88z"/>
	<path class="st1" d="M182.16,190.91v39.42c0,3.65,1.61,4.96,4.16,4.96s4.16-1.31,4.16-4.96v-39.42h7.59v38.91
		c0,8.18-4.09,12.85-11.97,12.85s-11.97-4.67-11.97-12.85v-38.91H182.16z"/>
	<path class="st1" d="M203.55,190.91h8.03v43.8h13.21v7.3h-21.24V190.91z"/>
	<path class="st1" d="M254.28,242h-8.1l-1.39-9.27h-9.85l-1.39,9.27h-7.37l8.18-51.1h11.75L254.28,242z M235.96,225.8h7.74
		l-3.87-25.84L235.96,225.8z"/>
	<path class="st1" d="M269.32,190.91h8.03v43.8h13.21v7.3h-21.24V190.91z"/>
	<path class="st1" d="M293.41,203.17c0-8.18,4.31-12.85,12.19-12.85c7.88,0,12.19,4.67,12.19,12.85v26.57
		c0,8.18-4.31,12.85-12.19,12.85c-7.88,0-12.19-4.67-12.19-12.85V203.17z M301.44,230.25c0,3.65,1.61,5.04,4.16,5.04
		c2.55,0,4.16-1.39,4.16-5.04v-27.59c0-3.65-1.61-5.04-4.16-5.04c-2.56,0-4.16,1.39-4.16,5.04V230.25z"/>
	<path class="st1" d="M335.02,213.54h11.24v16.21c0,8.18-4.09,12.85-11.97,12.85s-11.97-4.67-11.97-12.85v-26.57
		c0-8.18,4.09-12.85,11.97-12.85s11.97,4.67,11.97,12.85v4.96h-7.59v-5.47c0-3.65-1.61-5.04-4.16-5.04c-2.55,0-4.16,1.39-4.16,5.04
		v27.59c0,3.65,1.61,4.96,4.16,4.96c2.56,0,4.16-1.31,4.16-4.96v-9.42h-3.65V213.54z"/>
	<path class="st1" d="M351.44,190.91h8.03V242h-8.03V190.91z"/>
	<path class="st1" d="M392.1,190.91l-8.39,24.82l8.98,26.28h-8.47l-6.57-20.22L371,242h-7.52l8.98-26.28l-8.39-24.82h8.32
		l6.06,18.83l6.21-18.83H392.1z"/>
</g>
<g>
	<g>
		<path class="st1" d="M176.74,244.82c1.93,0,3.57,1.06,4.94,3.19c0.41,0.79,0.62,1.48,0.62,2.06v0.25c0,1.34-0.95,2.59-2.84,3.74
			c-0.74,0.46-1.78,0.91-3.12,1.36c-1.88,0.52-3.56,0.78-5.03,0.78c-0.35,0-0.85-0.04-1.5-0.12c-1.56,4.14-2.35,8-2.35,11.59v0.62
			c0,3.53,0.81,6.15,2.43,7.86c0.87,0.83,2.02,1.25,3.44,1.25c3.54,0,6.45-1.81,8.75-5.43c0.47-0.89,0.78-1.34,0.93-1.34h0.07
			c0.16,0.06,0.25,0.18,0.25,0.37c-0.09,0.91-0.58,2-1.45,3.28c-0.89,1.1-1.72,1.9-2.47,2.38c-2.43,1.65-4.96,2.47-7.58,2.47
			c-3.63,0-6.2-1.73-7.69-5.18c-0.76-1.74-1.15-3.78-1.15-6.12c0-3.74,0.99-8.19,2.96-13.37c-0.65-0.36-1.52-1.09-2.63-2.19
			c-1.5-1.83-2.35-3.44-2.52-4.81v-0.25c0.01-0.05,0.04-0.07,0.07-0.07h0.02c0.12,0,0.39,0.54,0.81,1.62
			c0.75,1.59,2.4,2.93,4.94,4.04h0.04c0.27-0.71,0.8-1.63,1.59-2.79C171,246.54,173.82,244.82,176.74,244.82z M170.65,254.13
			l0.3,0.07c2.62,0,4.84-0.75,6.67-2.26c0.89-0.92,1.34-1.82,1.34-2.72c0-1.12-0.54-1.76-1.62-1.94h-0.25
			c-1.45,0-3.05,1.3-4.81,3.91C171.68,252.13,171.14,253.1,170.65,254.13z"/>
		<path class="st1" d="M185.59,249.08h0.07c0.5,0.04,1.1,0.24,1.8,0.62c0.56,0.35,0.85,1,0.85,1.94c0,0.68-0.28,2.12-0.85,4.3
			c-1.62,6.54-2.43,10.93-2.43,13.17c0,0.72,0.12,1.2,0.35,1.45c0.09,0.06,0.16,0.09,0.21,0.09h0.11c0.53-0.09,1.29-0.78,2.27-2.05
			c0.79-1.19,1.43-2.52,1.92-3.99c0.09-0.41,0.21-0.62,0.35-0.62h0.02c0.04,0,0.05,0.02,0.05,0.05v0.05
			c-0.59,2.14-1.23,3.9-1.94,5.29c-1.23,2.35-2.53,3.53-3.88,3.53c-1.27,0-2.1-0.7-2.5-2.1c-0.14-0.6-0.21-1.19-0.21-1.76
			c0-1.01,0.25-2.62,0.74-4.81c0.87-4.33,1.75-9.04,2.63-14.14v-0.07l-0.02-0.18C185.13,249.34,185.28,249.08,185.59,249.08z"/>
		<path class="st1" d="M195.48,257.04c0.82,0,1.58,0.33,2.26,0.99c0.27,0.29,0.48,0.56,0.62,0.79c0.2,0.32,0.39,0.71,0.56,1.16
			c0.13,0.35,0.26,0.86,0.39,1.52c0.12,0.74,0.18,1.23,0.18,1.46c0.28,0.04,0.58,0.05,0.9,0.05h0.23c1.21,0,2.62-0.21,4.21-0.62
			c0.2-0.05,0.34-0.07,0.42-0.07c0.04,0,0.05,0.02,0.05,0.05c0,0.09-0.14,0.22-0.41,0.37c-0.31,0.14-0.78,0.31-1.43,0.49
			c-1.09,0.28-2.17,0.42-3.23,0.42c-0.11,0-0.35-0.01-0.72-0.02c0,0.12,0.01,0.25,0.02,0.41c0,2.29-0.51,4.24-1.52,5.84
			c-0.17,0.27-0.42,0.6-0.78,0.99c-0.35,0.38-0.61,0.62-0.78,0.72c-0.99,0.75-2.01,1.13-3.07,1.13c-0.86,0-1.63-0.24-2.31-0.72
			c-0.81-0.56-1.39-1.44-1.75-2.63c-0.2-0.69-0.3-1.44-0.3-2.24v-0.07c0-1.15,0.19-2.42,0.56-3.79c0.19-0.49,0.53-0.88,1.02-1.16
			c0.34-0.16,0.62-0.26,0.83-0.3c0.12-0.04,0.32-0.06,0.6-0.09c0.58,0.01,0.92,0.15,1.04,0.42c0.02,0.05,0.04,0.09,0.04,0.12
			c0,0.11-0.06,0.28-0.18,0.53c-0.61,1.47-0.92,2.8-0.92,3.98c0,1.26,0.33,2.23,0.99,2.91c0.42,0.39,0.87,0.58,1.34,0.58h0.05
			c0.55,0,1.09-0.26,1.62-0.78c0.27-0.31,0.47-0.58,0.6-0.83c0.61-1.13,0.92-2.56,0.92-4.28v-0.12c0-0.38-0.01-0.68-0.04-0.9
			c-0.68-0.15-1.28-0.33-1.78-0.55c-0.69-0.28-1.32-0.61-1.89-0.99c-0.93-0.68-1.39-1.43-1.39-2.24v-0.02c0-0.6,0.25-1.15,0.76-1.66
			c0.25-0.22,0.48-0.39,0.69-0.49C194.41,257.17,194.93,257.04,195.48,257.04z M194.67,259.22c0,0.52,0.22,1.05,0.67,1.6
			c0.25,0.31,0.49,0.55,0.72,0.72c0.49,0.38,0.91,0.64,1.23,0.79l0.21,0.11v-0.02c0-0.4-0.06-0.98-0.18-1.75
			c-0.12-0.56-0.24-1-0.37-1.3c-0.09-0.25-0.22-0.49-0.39-0.72c-0.31-0.41-0.63-0.62-0.99-0.62c-0.33,0-0.59,0.18-0.78,0.53
			C194.72,258.77,194.67,258.99,194.67,259.22z"/>
		<path class="st1" d="M210.75,257.97h0.18c0.62,0,1.25,0.38,1.89,1.13c0.38,0.54,0.56,1.06,0.56,1.57v0.19
			c0,0.53-0.41,1.98-1.22,4.36c-0.87,2.74-1.31,4.66-1.31,5.75c0.04,0.6,0.17,0.9,0.41,0.9h0.05c0.69,0,1.89-1.44,3.58-4.32
			c0.39-0.75,0.76-1.53,1.13-2.33c0.05-0.04,0.09-0.05,0.12-0.05c0.13,0,0.21,0.08,0.23,0.25v0.09c0,0.32-0.15,0.76-0.46,1.32
			c-0.53,1.19-1.23,2.45-2.1,3.79c-1.67,2.39-3.07,3.58-4.2,3.58c-1.02,0-1.66-1.13-1.92-3.39c-0.04-0.18-0.06-0.49-0.07-0.93
			c-0.98,0.87-1.85,1.3-2.63,1.3c-0.8,0-1.53-0.43-2.2-1.3c-0.34-0.61-0.51-1.34-0.51-2.19c0-1.05,0.45-3.17,1.36-6.37
			c0.23-0.94,0.35-1.73,0.35-2.36v-0.09c0.05-0.28,0.19-0.42,0.44-0.42c0.69,0.09,1.61,0.75,2.75,1.96
			c0.06,0.17,0.09,0.31,0.11,0.44c0,0.82-0.51,2.99-1.53,6.49c-0.2,0.75-0.3,1.33-0.3,1.75c0.05,0.46,0.22,0.69,0.53,0.69h0.09
			c0.42,0,0.98-0.29,1.66-0.86c0.26-1.39,0.58-2.74,0.97-4.07c0.34-0.99,0.64-2.16,0.9-3.51l0.58-3.14
			C210.36,258.04,210.55,257.97,210.75,257.97z"/>
		<path class="st1" d="M228.42,248.75h0.04c0.22,0,0.33,0.24,0.33,0.71c0,1.01-0.54,3.28-1.62,6.81c-1.06,3.6-1.97,7.47-2.73,11.6
			c-0.29,1.8-0.44,3.17-0.44,4.13v0.28c0,0.99,0.25,1.56,0.76,1.73c0.02,0.02,0.06,0.04,0.12,0.04c1.08,0,2.42-2.06,4-6.17
			c0.19-0.53,0.37-1.15,0.55-1.87c0.11-0.09,0.2-0.14,0.28-0.14c0.05,0.06,0.07,0.14,0.07,0.23c-0.09,1.16-0.76,3.14-2.01,5.92
			c-1.5,3.03-2.79,4.55-3.86,4.55h-0.05c-1.12,0-1.9-1.7-2.36-5.11c-0.04-0.41-0.05-0.74-0.05-0.99c-1.39,1.3-2.76,1.96-4.11,1.96
			h-0.23c-1.36,0-2.32-0.84-2.86-2.52c-0.14-0.59-0.21-1.23-0.21-1.92c0-1.98,0.65-3.94,1.94-5.91c1.27-1.66,2.76-2.49,4.48-2.49
			c1.02,0,1.86,0.3,2.52,0.9c1.38-4.64,2.43-7.74,3.17-9.28C227,249.57,227.76,248.75,228.42,248.75z M217.31,268.55
			c0,0.87,0.29,1.43,0.88,1.67c0.2,0.06,0.48,0.11,0.83,0.14c0.8,0,1.6-0.42,2.42-1.27c0-1.72,0.41-4.18,1.22-7.39
			c-0.22-0.06-0.44-0.09-0.65-0.11c-1.39,0-2.66,1.15-3.83,3.46C217.6,266.38,217.31,267.54,217.31,268.55z"/>
		<path class="st1" d="M253.2,244.82c1.93,0,3.57,1.06,4.94,3.19c0.41,0.79,0.62,1.48,0.62,2.06v0.25c0,1.34-0.95,2.59-2.84,3.74
			c-0.74,0.46-1.78,0.91-3.12,1.36c-1.88,0.52-3.56,0.78-5.03,0.78c-0.35,0-0.85-0.04-1.5-0.12c-1.56,4.14-2.35,8-2.35,11.59v0.62
			c0,3.53,0.81,6.15,2.43,7.86c0.87,0.83,2.02,1.25,3.44,1.25c3.54,0,6.45-1.81,8.75-5.43c0.47-0.89,0.78-1.34,0.93-1.34h0.07
			c0.16,0.06,0.25,0.18,0.25,0.37c-0.09,0.91-0.58,2-1.45,3.28c-0.89,1.1-1.72,1.9-2.47,2.38c-2.43,1.65-4.96,2.47-7.58,2.47
			c-3.63,0-6.2-1.73-7.69-5.18c-0.76-1.74-1.15-3.78-1.15-6.12c0-3.74,0.99-8.19,2.96-13.37c-0.65-0.36-1.52-1.09-2.63-2.19
			c-1.5-1.83-2.35-3.44-2.52-4.81v-0.25c0.01-0.05,0.04-0.07,0.07-0.07h0.02c0.12,0,0.39,0.54,0.81,1.62
			c0.75,1.59,2.4,2.93,4.94,4.04h0.04c0.27-0.71,0.8-1.63,1.59-2.79C247.46,246.54,250.28,244.82,253.2,244.82z M247.11,254.13
			l0.3,0.07c2.62,0,4.84-0.75,6.67-2.26c0.89-0.92,1.34-1.82,1.34-2.72c0-1.12-0.54-1.76-1.62-1.94h-0.25
			c-1.45,0-3.05,1.3-4.81,3.91C248.13,252.13,247.59,253.1,247.11,254.13z"/>
		<path class="st1" d="M265.08,257.04c0.82,0,1.58,0.33,2.26,0.99c0.27,0.29,0.48,0.56,0.62,0.79c0.2,0.32,0.39,0.71,0.56,1.16
			c0.13,0.35,0.26,0.86,0.39,1.52c0.12,0.74,0.18,1.23,0.18,1.46c0.28,0.04,0.58,0.05,0.9,0.05h0.23c1.21,0,2.62-0.21,4.21-0.62
			c0.2-0.05,0.34-0.07,0.42-0.07c0.04,0,0.05,0.02,0.05,0.05c0,0.09-0.14,0.22-0.41,0.37c-0.31,0.14-0.78,0.31-1.43,0.49
			c-1.09,0.28-2.17,0.42-3.23,0.42c-0.11,0-0.35-0.01-0.72-0.02c0,0.12,0.01,0.25,0.02,0.41c0,2.29-0.51,4.24-1.52,5.84
			c-0.17,0.27-0.42,0.6-0.78,0.99c-0.35,0.38-0.61,0.62-0.78,0.72c-0.99,0.75-2.01,1.13-3.07,1.13c-0.86,0-1.63-0.24-2.31-0.72
			c-0.81-0.56-1.39-1.44-1.75-2.63c-0.2-0.69-0.3-1.44-0.3-2.24v-0.07c0-1.15,0.19-2.42,0.56-3.79c0.19-0.49,0.53-0.88,1.02-1.16
			c0.34-0.16,0.62-0.26,0.83-0.3c0.12-0.04,0.32-0.06,0.6-0.09c0.58,0.01,0.92,0.15,1.04,0.42c0.02,0.05,0.04,0.09,0.04,0.12
			c0,0.11-0.06,0.28-0.18,0.53c-0.61,1.47-0.92,2.8-0.92,3.98c0,1.26,0.33,2.23,0.99,2.91c0.42,0.39,0.87,0.58,1.34,0.58h0.05
			c0.55,0,1.09-0.26,1.62-0.78c0.27-0.31,0.47-0.58,0.6-0.83c0.61-1.13,0.92-2.56,0.92-4.28v-0.12c0-0.38-0.01-0.68-0.04-0.9
			c-0.68-0.15-1.28-0.33-1.78-0.55c-0.69-0.28-1.32-0.61-1.89-0.99c-0.93-0.68-1.39-1.43-1.39-2.24v-0.02c0-0.6,0.25-1.15,0.76-1.66
			c0.25-0.22,0.48-0.39,0.69-0.49C264,257.17,264.53,257.04,265.08,257.04z M264.27,259.22c0,0.52,0.22,1.05,0.67,1.6
			c0.25,0.31,0.49,0.55,0.72,0.72c0.49,0.38,0.91,0.64,1.23,0.79l0.21,0.11v-0.02c0-0.4-0.06-0.98-0.18-1.75
			c-0.12-0.56-0.24-1-0.37-1.3c-0.09-0.25-0.22-0.49-0.39-0.72c-0.31-0.41-0.63-0.62-0.99-0.62c-0.33,0-0.59,0.18-0.78,0.53
			C264.32,258.77,264.27,258.99,264.27,259.22z"/>
		<path class="st1" d="M280.69,258.15c0.94,0,1.56,0.61,1.87,1.82c0.11,0.51,0.16,1.01,0.16,1.5v0.11c0,1.27-0.28,2.64-0.83,4.11
			c-1.07,3.43-1.6,5.57-1.6,6.4v0.07c0,0.27,0.06,0.43,0.18,0.49h0.09c0.43,0,1.32-1.13,2.65-3.4c0.95-1.61,1.82-3.2,2.61-4.76
			c0.21-0.32,0.38-0.48,0.51-0.48h0.04c0.04,0,0.06,0.05,0.07,0.14c0,0.34-0.96,2.35-2.89,6.01c-0.72,1.33-1.46,2.5-2.24,3.53
			c-0.74,0.78-1.44,1.16-2.1,1.16c-0.83,0-1.42-0.51-1.75-1.52c-0.08-0.35-0.12-0.68-0.12-0.97v-0.39c0-0.87,0.49-3.9,1.46-9.1
			c0.06-0.54,0.09-0.94,0.09-1.2v-0.23c0-0.13-0.03-0.21-0.09-0.23c-0.31,0.04-1.46,2.33-3.46,6.9c-0.61,1.4-0.92,2.15-0.92,2.26
			c-0.19,1.12-0.42,1.68-0.71,1.68c-0.74-0.26-1.36-0.79-1.85-1.6c-0.29-0.53-0.44-1.08-0.44-1.64c0-0.09,0.19-1.23,0.58-3.42
			c0.31-1.85,0.66-4.04,1.06-6.58c0.21-0.4,0.46-0.6,0.74-0.6c0.55,0,1.31,0.76,2.27,2.29c0.01,0.09,0.02,0.18,0.02,0.26v0.18
			c0,0.92-0.31,2.7-0.92,5.36v0.04h0.04c1.54-3.71,2.89-6.19,4.04-7.44C279.7,258.39,280.18,258.15,280.69,258.15z"/>
		<path class="st1" d="M289.04,256.9c0.96,0,1.81,0.29,2.54,0.86c0.29,0.28,0.46,0.47,0.51,0.56c0.25,0.35,0.37,0.66,0.37,0.92v0.07
			c0,0.49-0.13,0.96-0.39,1.41c-0.18,0.25-0.36,0.37-0.55,0.37s-0.31-0.08-0.37-0.23v-0.07c0-0.09,0.06-0.37,0.19-0.83
			c0.02-0.12,0.04-0.22,0.04-0.32v-0.04c0-0.45-0.29-0.79-0.88-1.02c-0.13-0.04-0.25-0.05-0.35-0.05h-0.04
			c-0.52,0-1.01,0.3-1.48,0.9c-0.2,0.28-0.35,0.52-0.44,0.72c-0.18,0.44-0.26,0.78-0.26,1.04c-0.01,0-0.02,0.01-0.02,0.02v0.23
			c0,1.06,0.38,2.42,1.13,4.09c0.27,0.65,0.75,1.7,1.43,3.17h0.02c0.48-0.33,1-0.71,1.55-1.13c0.21-0.18,0.5-0.45,0.86-0.83
			c0.38-0.41,0.65-0.82,0.81-1.22c0.07-0.18,0.14-0.38,0.19-0.62c0.08-0.15,0.15-0.23,0.19-0.23h0.02c0.06,0,0.09,0.08,0.11,0.23
			v0.09c-0.02,0.34-0.23,0.86-0.62,1.55c-0.69,1.1-1.63,2.03-2.8,2.79c0.02,0.11,0.13,0.35,0.33,0.74c0.51,0.92,0.85,1.55,1.02,1.9
			c0.32,0.61,0.48,1.12,0.48,1.53v0.11c0,0.82-0.53,1.7-1.6,2.63c-0.34,0.28-0.65,0.5-0.93,0.65c-0.96,0.51-1.94,0.76-2.93,0.76
			h-0.11c-0.13,0-0.26-0.01-0.41-0.02c-0.15,0.01-0.29,0.02-0.42,0.02h-0.05c-1.13,0-2.07-0.29-2.82-0.88
			c-0.53-0.45-0.79-0.96-0.79-1.55c0-0.81,0.46-1.66,1.39-2.54c0.54-0.47,1.13-0.92,1.78-1.36c0.72-0.48,1.46-0.96,2.24-1.45
			c-0.81-1.7-1.43-3.06-1.85-4.06c-0.8-1.93-1.2-3.47-1.2-4.62c0-0.88,0.22-1.71,0.67-2.49c0.48-0.76,1.16-1.3,2.03-1.6
			C288.08,256.97,288.55,256.9,289.04,256.9z M284.95,274.86c0,0.35,0.22,0.6,0.65,0.74c0.06,0.02,0.09,0.04,0.11,0.04
			c0.11,0,0.38-0.08,0.83-0.25c0.26-0.12,0.52-0.27,0.79-0.46c0.92-0.69,1.38-1.55,1.38-2.57v-0.05c0-0.4-0.08-0.83-0.25-1.31
			c-0.59,0.4-1.22,0.89-1.89,1.46C285.49,273.44,284.95,274.24,284.95,274.86z"/>
		<path class="st1" d="M301.83,257.97H302c0.62,0,1.25,0.38,1.89,1.13c0.38,0.54,0.56,1.06,0.56,1.57v0.19
			c0,0.53-0.41,1.98-1.22,4.36c-0.87,2.74-1.31,4.66-1.31,5.75c0.04,0.6,0.17,0.9,0.41,0.9h0.05c0.69,0,1.89-1.44,3.58-4.32
			c0.39-0.75,0.76-1.53,1.13-2.33c0.05-0.04,0.09-0.05,0.12-0.05c0.13,0,0.21,0.08,0.23,0.25v0.09c0,0.32-0.15,0.76-0.46,1.32
			c-0.53,1.19-1.23,2.45-2.1,3.79c-1.67,2.39-3.07,3.58-4.2,3.58c-1.02,0-1.66-1.13-1.92-3.39c-0.04-0.18-0.06-0.49-0.07-0.93
			c-0.98,0.87-1.85,1.3-2.63,1.3c-0.8,0-1.53-0.43-2.2-1.3c-0.34-0.61-0.51-1.34-0.51-2.19c0-1.05,0.45-3.17,1.36-6.37
			c0.23-0.94,0.35-1.73,0.35-2.36v-0.09c0.05-0.28,0.19-0.42,0.44-0.42c0.69,0.09,1.61,0.75,2.75,1.96
			c0.06,0.17,0.09,0.31,0.11,0.44c0,0.82-0.51,2.99-1.53,6.49c-0.2,0.75-0.3,1.33-0.3,1.75c0.05,0.46,0.22,0.69,0.53,0.69h0.09
			c0.42,0,0.98-0.29,1.66-0.86c0.26-1.39,0.58-2.74,0.97-4.07c0.34-0.99,0.64-2.16,0.9-3.51l0.58-3.14
			C301.44,258.04,301.63,257.97,301.83,257.97z"/>
		<path class="st1" d="M309.13,249.08h0.07c0.5,0.04,1.1,0.24,1.8,0.62c0.56,0.35,0.85,1,0.85,1.94c0,0.68-0.28,2.12-0.85,4.3
			c-1.62,6.54-2.43,10.93-2.43,13.17c0,0.72,0.12,1.2,0.35,1.45c0.09,0.06,0.16,0.09,0.21,0.09h0.11c0.53-0.09,1.29-0.78,2.27-2.05
			c0.79-1.19,1.43-2.52,1.92-3.99c0.09-0.41,0.21-0.62,0.35-0.62h0.02c0.04,0,0.05,0.02,0.05,0.05v0.05
			c-0.59,2.14-1.23,3.9-1.94,5.29c-1.23,2.35-2.53,3.53-3.88,3.53c-1.27,0-2.1-0.7-2.5-2.1c-0.14-0.6-0.21-1.19-0.21-1.76
			c0-1.01,0.25-2.62,0.74-4.81c0.87-4.33,1.75-9.04,2.63-14.14v-0.07l-0.02-0.18C308.67,249.34,308.82,249.08,309.13,249.08z"/>
		<path class="st1" d="M316.92,248.73c0.52,0.04,1.15,0.25,1.89,0.65c0.51,0.34,0.76,0.96,0.76,1.87c0,0.58-0.08,1.19-0.23,1.85
			h0.04c0.94-0.28,1.73-0.59,2.38-0.93c0.49-0.28,0.99-0.65,1.48-1.09c0.42-0.43,0.71-0.85,0.86-1.23c0.2-0.13,0.39-0.19,0.56-0.19
			h0.02c0.15,0,0.24,0.11,0.26,0.33c0,0.45-0.31,1.1-0.92,1.96c-0.85,0.8-1.81,1.39-2.89,1.76c-0.66,0.26-1.36,0.48-2.1,0.67
			c-1.81,7.25-2.72,11.99-2.72,14.2v0.18c0,1.1,0.28,1.66,0.83,1.66c1.09,0,3.24-2.19,6.44-6.56h0.04v0.02
			c-0.55,1.83-1.67,3.8-3.35,5.91c-1.66,1.87-3.17,2.8-4.53,2.8c-1.21,0-2.03-0.68-2.45-2.05c-0.14-0.53-0.21-1.13-0.21-1.82
			c0-1.13,0.28-2.88,0.85-5.25c0.76-4.02,1.3-6.88,1.6-8.59h-0.02c-0.71,0.02-1.23,0.04-1.59,0.04c-4.14,0-6.42-0.18-6.86-0.53
			l-0.02-0.12v-0.12c0.12-0.18,0.32-0.26,0.62-0.26c0.73,0.04,1.72,0.06,2.98,0.07c1.66,0,3.36-0.06,5.1-0.19
			c0.46-2.27,0.69-3.66,0.69-4.18C316.43,249.01,316.59,248.73,316.92,248.73z"/>
		<path class="st1" d="M323.27,257.39h0.18c0.68,0.11,1.28,0.32,1.8,0.65c0.49,0.36,0.74,0.96,0.74,1.8v0.18
			c0,0.75-0.21,1.74-0.62,2.96c-0.91,3.15-1.36,5.25-1.36,6.29v0.16c0,0.68,0.2,1.02,0.6,1.02c0.67-0.12,1.49-0.78,2.47-1.99
			c0.61-0.88,1.16-1.88,1.64-3c0.38-1.09,0.61-1.7,0.69-1.82l0.12-0.02c0.04,0.04,0.05,0.06,0.05,0.09
			c-0.46,1.69-0.96,3.16-1.5,4.41c-1.35,2.95-2.77,4.43-4.27,4.43h-0.26c-0.75,0-1.4-0.39-1.94-1.18c-0.36-0.68-0.55-1.5-0.55-2.45
			v-0.28c0-0.06-0.01-0.11-0.02-0.14c0-0.93,0.36-2.94,1.08-6.05c0.47-2.34,0.71-3.76,0.71-4.27
			C322.83,257.65,322.98,257.39,323.27,257.39z M325.25,253.21h0.19c0.47,0,0.85,0.45,1.13,1.34c0.06,0.27,0.09,0.49,0.09,0.65
			c-0.13,0.98-0.56,1.46-1.29,1.46h-0.11c-0.45,0-0.99-0.22-1.64-0.67c-0.2-0.24-0.3-0.48-0.3-0.74c0-0.61,0.36-1.2,1.08-1.76
			C324.76,253.3,325.05,253.21,325.25,253.21z"/>
		<path class="st1" d="M337.06,258.15c0.94,0,1.56,0.61,1.87,1.82c0.11,0.51,0.16,1.01,0.16,1.5v0.11c0,1.27-0.28,2.64-0.83,4.11
			c-1.07,3.43-1.6,5.57-1.6,6.4v0.07c0,0.27,0.06,0.43,0.18,0.49h0.09c0.43,0,1.32-1.13,2.65-3.4c0.95-1.61,1.82-3.2,2.61-4.76
			c0.21-0.32,0.38-0.48,0.51-0.48h0.04c0.04,0,0.06,0.05,0.07,0.14c0,0.34-0.96,2.35-2.89,6.01c-0.72,1.33-1.46,2.5-2.24,3.53
			c-0.74,0.78-1.44,1.16-2.1,1.16c-0.83,0-1.42-0.51-1.75-1.52c-0.08-0.35-0.12-0.68-0.12-0.97v-0.39c0-0.87,0.49-3.9,1.46-9.1
			c0.06-0.54,0.09-0.94,0.09-1.2v-0.23c0-0.13-0.03-0.21-0.09-0.23c-0.31,0.04-1.46,2.33-3.46,6.9c-0.61,1.4-0.92,2.15-0.92,2.26
			c-0.19,1.12-0.42,1.68-0.71,1.68c-0.74-0.26-1.36-0.79-1.85-1.6c-0.29-0.53-0.44-1.08-0.44-1.64c0-0.09,0.19-1.23,0.58-3.42
			c0.31-1.85,0.66-4.04,1.06-6.58c0.21-0.4,0.46-0.6,0.74-0.6c0.55,0,1.31,0.76,2.27,2.29c0.01,0.09,0.02,0.18,0.02,0.26v0.18
			c0,0.92-0.31,2.7-0.92,5.36v0.04h0.04c1.54-3.71,2.89-6.19,4.04-7.44C336.07,258.39,336.55,258.15,337.06,258.15z"/>
		<path class="st1" d="M350.44,256.74c0.6,0,1.19,0.39,1.78,1.16c0.21,0.31,0.32,0.54,0.32,0.69c-1.3,7.64-2.09,12.1-2.36,13.37
			c1.28,0.24,2.25,0.48,2.89,0.74c0.61,0.27,1.04,0.5,1.29,0.69v0.04c0,0.09-0.04,0.15-0.11,0.18c-1.96-0.61-3.2-0.92-3.72-0.92
			c0-0.02-0.16-0.05-0.48-0.09c-0.48,2.26-1,4.05-1.57,5.38c-0.53,1.33-1.18,2.52-1.94,3.58c-0.34,0.45-0.78,0.89-1.31,1.32
			c-0.79,0.56-1.49,0.85-2.12,0.85h-0.07c-0.98,0-1.84-0.62-2.59-1.87c-0.61-1.12-0.92-2.32-0.92-3.6c0-2.5,1.06-4.38,3.17-5.63
			c1.09-0.52,2.1-0.81,3.03-0.86c0.74-0.05,1.17-0.08,1.29-0.09c0.26-1.73,0.49-3.45,0.69-5.17v-0.02h-0.02
			c-0.24,0.59-0.69,1.29-1.36,2.1c-0.82,0.79-1.65,1.18-2.47,1.18c-1.02,0-1.86-0.55-2.5-1.64c-0.32-0.63-0.48-1.37-0.48-2.2
			c0-1.95,0.72-3.9,2.17-5.84c0.72-0.81,1.27-1.33,1.66-1.55c0.8-0.46,1.48-0.69,2.05-0.69h0.32c0.61,0,1.26,0.23,1.96,0.69h0.04
			C349.31,257.34,349.76,256.74,350.44,256.74z M341.06,277.63c0,1.29,0.6,2.37,1.8,3.24c0.26,0.15,0.51,0.23,0.76,0.23
			c0.82,0,1.55-1.2,2.19-3.6c0.36-1.13,0.72-2.73,1.06-4.81v-0.02c0-0.05-0.08-0.08-0.23-0.11c-1.08,0.12-1.95,0.35-2.59,0.69
			c-0.52,0.22-1.14,0.71-1.87,1.46C341.43,275.64,341.06,276.61,341.06,277.63z M344.15,266.73c0,0.96,0.19,1.45,0.58,1.45
			c0.63,0,1.66-1.19,3.07-3.56l1.11-4.83c0.04-0.13,0.05-0.25,0.05-0.35v-0.05c-0.34-0.52-0.78-0.78-1.3-0.78
			c-1.49,0-2.62,2.16-3.39,6.47C344.19,265.76,344.15,266.31,344.15,266.73z"/>
	</g>
</g>
<path class="st1" d="M120.13,113.13c22.04,0,40.32,15.64,43.61,36.14c3.3-0.99,6.6-1.44,10.27-1.44c9.89,0,19.88,4.4,27.6,11.14
	c5.6,4.89,9.96,11.04,12.07,17.69h10.92v-0.34c-1.32-21.93-23.37-37.48-46.16-37.48c-4.15,0-8.01,0.53-11.78,1.53
	c-3.76-23.1-24.77-40.9-50.11-40.9c-28.07,0-50.87,21.84-50.87,48.44c0,4.41,0.57,8.54,1.7,12.59
	c-28.07,2.34-50.02,25.97-50.02,54.74c0,29.21,22.51,53.02,51.06,55.01c0.94,0.09,2.07,0.18,3.2,0.18h76.94c0,0,0.24-5.52,0.24-6.66
	H81.04c-0.94,0-1.89-0.09-2.73-0.17c-24.87-1.71-44.37-22.65-44.37-48.45c0-25.34,19.03-46.19,43.42-48.18
	c-0.94-3.59-1.41-7.28-1.41-11.05C75.95,132.36,95.73,113.13,120.13,113.13z"/>
</svg>
